{
  "testEnvironment": "jsdom",
  "transform": {
    "^.+\\.(js|ts)x?$": "ts-jest"
  },
  "setupFilesAfterEnv": [
    "@testing-library/jest-dom/extend-expect"
  ],
  "moduleNameMapper": {
    "^@api/(.*)$": "<rootDir>/src/api/(.*)$",
    "^@components/(.*)$": "<rootDir>/src/components/$1",
    "^@configs/(.*)$": "<rootDir>/src/configs/$1",
    "^@consts/(.*)$": "<rootDir>/src/consts/$1",
    "^@entities/(.*)$": "<rootDir>/src/entities/$1",
    "^@features/(.*)$": "<rootDir>/src/features/$1",
    "^@img/(.*)$": "<rootDir>/src/img/$1",
    "^@redux/(.*)$": "<rootDir>/src/redux/$1",
    "^@shared/(.*)$": "<rootDir>/src/shared/$1",
    "^@tools/(.*)$": "<rootDir>/src/tools/$1",
    "^@ui/(.*)$": "<rootDir>/src/ui/$1",
    "^@effector-form": "<rootDir>/src/features/effector-form/index",
    "^@sounds/(.*)$": "<rootDir>/src/sounds/$1"
  }
}
