<svg width="20" height="20" viewBox="0 0 24 24" fill="none" xmlns="http://www.w3.org/2000/svg">
<path fill-rule="evenodd" clip-rule="evenodd" d="M10 5L5 5L5 3L10 3V5Z" fill="#191C29" fill-opacity="0.54"/>
<path fill-rule="evenodd" clip-rule="evenodd" d="M1 15L1 9H3V15H1Z" fill="#191C29" fill-opacity="0.54"/>
<path fill-rule="evenodd" clip-rule="evenodd" d="M21 15V9H23V15H21Z" fill="#191C29" fill-opacity="0.54"/>
<path fill-rule="evenodd" clip-rule="evenodd" d="M10 21H5L5 19H10V21Z" fill="#191C29" fill-opacity="0.54"/>
<path fill-rule="evenodd" clip-rule="evenodd" d="M19 5L14 5V3L19 3V5Z" fill="#191C29" fill-opacity="0.54"/>
<path fill-rule="evenodd" clip-rule="evenodd" d="M19 21H14V19H19V21Z" fill="#191C29" fill-opacity="0.54"/>
<path fill-rule="evenodd" clip-rule="evenodd" d="M4 8C4 6.89543 4.89543 6 6 6H18C19.1046 6 20 6.89543 20 8V16C20 17.1046 19.1046 18 18 18H6C4.89543 18 4 17.1046 4 16V8ZM18 8H6V16H18V8Z" fill="#191C29" fill-opacity="0.54"/>
</svg>
