<svg width="34" height="34" viewBox="0 0 34 34" fill="none" xmlns="http://www.w3.org/2000/svg">
<circle cx="17" cy="17" r="17" fill="black" fill-opacity="0.5"/>
<path fill-rule="evenodd" clip-rule="evenodd" d="M17 11C15.8954 11 15 10.1046 15 9C15 7.89543 15.8954 7 17 7C18.1046 7 19 7.89543 19 9C19 10.1046 18.1046 11 17 11ZM17 19C15.8954 19 15 18.1046 15 17C15 15.8954 15.8954 15 17 15C18.1046 15 19 15.8954 19 17C19 18.1046 18.1046 19 17 19ZM15 25C15 26.1046 15.8954 27 17 27C18.1046 27 19 26.1046 19 25C19 23.8954 18.1046 23 17 23C15.8954 23 15 23.8954 15 25Z" fill="white"/>
</svg>
