<svg width="32" height="32" viewBox="0 0 32 32" fill="none" xmlns="http://www.w3.org/2000/svg">
<path d="M17.8416 15.219C18.1361 15.9146 18.0219 16.7481 17.4809 17.3442C16.7385 18.1621 15.4737 18.2233 14.6558 17.481C13.8379 16.7386 13.7766 15.4738 14.519 14.6559C15.106 14.009 16.0199 13.8354 16.7811 14.1583L19.9393 11C20.2322 10.7071 20.7071 10.7071 21 11C21.2929 11.2929 21.2929 11.7678 21 12.0607L17.8416 15.219Z" fill="#58586A"/>
<path fill-rule="evenodd" clip-rule="evenodd" d="M16 28C22.6274 28 28 22.6274 28 16C28 9.37258 22.6274 4 16 4C9.37258 4 4 9.37258 4 16C4 22.6274 9.37258 28 16 28ZM25.9506 15H25C24.4477 15 24 15.4477 24 16C24 16.5523 24.4477 17 25 17H25.9506C25.4816 21.7244 21.7244 25.4816 17 25.9506V25C17 24.4477 16.5523 24 16 24C15.4477 24 15 24.4477 15 25V25.9506C10.2756 25.4816 6.51844 21.7244 6.04938 17H7C7.55228 17 8 16.5523 8 16C8 15.4477 7.55228 15 7 15H6.04938C6.51844 10.2756 10.2756 6.51844 15 6.04938V7C15 7.55228 15.4477 8 16 8C16.5523 8 17 7.55228 17 7V6.04938C21.7244 6.51844 25.4816 10.2756 25.9506 15Z" fill="#58586A"/>
</svg>
