<svg width="32" height="28" viewBox="0 0 32 28" fill="none" xmlns="http://www.w3.org/2000/svg">
<path fill-rule="evenodd" clip-rule="evenodd" d="M1.5 0.5C1.08579 0.5 0.75 0.835786 0.75 1.25V4.75C0.75 4.89807 0.793829 5.04282 0.875963 5.16603L0.936598 5.25698C1.66048 6.94461 3.07166 8.17346 4.75 8.70627V9.8C4.75 10.1204 4.86009 10.4457 5.10717 10.6928C5.35425 10.9399 5.67956 11.05 6 11.05H8.55005H11.5414L11.55 11.05L11.5587 11.05H14.5414L14.55 11.05L14.5587 11.05H17.5414L17.55 11.05L17.5587 11.05H20.5414L20.55 11.05L20.5587 11.05H23.5414L23.55 11.05L23.5587 11.05H26.05C26.3704 11.05 26.6957 10.9399 26.9428 10.6928C27.1899 10.4457 27.3 10.1204 27.3 9.8V8.69885C29.004 8.14621 30.4272 6.8712 31.1402 5.19336C31.1481 5.17492 31.1552 5.15617 31.1615 5.13717L31.2115 4.98717C31.237 4.91069 31.25 4.83061 31.25 4.75V1.25C31.25 0.835786 30.9142 0.5 30.5 0.5H1.5ZM6.65 7.5C5.08892 7.5 3.64988 6.74436 2.77925 5.5H29.258C28.3827 6.72372 26.9459 7.5 25.4 7.5H8.55005H6.65ZM29.75 2V4H2.25V2H29.75ZM6.65 9H7.80005V9.55H6.25V8.98733C6.38259 8.99574 6.51598 9 6.65 9ZM9.30005 9V9.55H10.8V9H9.30005ZM13.8 9.55H12.3V9H13.8V9.55ZM15.3 9.55V9H16.8V9.55H15.3ZM18.3 9.55V9H19.8V9.55H18.3ZM21.3 9.55V9H22.8V9.55H21.3ZM24.3 9.55V9H25.4C25.5341 9 25.6674 8.99561 25.8 8.98694V9.55H24.3ZM15.1926 24.9748L15.1926 26.5712C15.1926 26.9854 15.5284 27.3212 15.9426 27.3212C16.3568 27.3212 16.6926 26.9854 16.6926 26.5712V24.9748C16.6926 24.5606 16.3568 24.2248 15.9426 24.2248C15.5284 24.2248 15.1926 24.5606 15.1926 24.9748ZM15.1926 18.5892L15.1926 21.782C15.1926 22.1962 15.5284 22.532 15.9426 22.532C16.3568 22.532 16.6926 22.1962 16.6926 21.782L16.6926 18.5892C16.6926 18.175 16.3568 17.8392 15.9426 17.8392C15.5284 17.8392 15.1926 18.175 15.1926 18.5892ZM15.1926 13.8L15.1926 15.3964C15.1926 15.8107 15.5284 16.1464 15.9426 16.1464C16.3568 16.1464 16.6926 15.8107 16.6926 15.3964L16.6926 13.8C16.6926 13.3858 16.3568 13.05 15.9426 13.05C15.5284 13.05 15.1926 13.3858 15.1926 13.8ZM30.4858 26.0906L29.6876 24.7081C29.4805 24.3494 29.6034 23.8907 29.9621 23.6836C30.3208 23.4765 30.7795 23.5994 30.9866 23.9581L31.7848 25.3406C31.9919 25.6993 31.869 26.158 31.5103 26.3651C31.1516 26.5723 30.6929 26.4493 30.4858 26.0906ZM28.0912 21.9431L26.4948 19.1781C26.2877 18.8193 26.4106 18.3606 26.7693 18.1535C27.1281 17.9464 27.5867 18.0693 27.7939 18.4281L29.3902 21.1931C29.5973 21.5518 29.4744 22.0105 29.1157 22.2176C28.757 22.4247 28.2983 22.3018 28.0912 21.9431ZM24.8984 16.413L24.1002 15.0305C23.8931 14.6718 24.016 14.2131 24.3748 14.006C24.7335 13.7989 25.1922 13.9218 25.3993 14.2805L26.1975 15.663C26.4046 16.0218 26.2817 16.4804 25.9229 16.6876C25.5642 16.8947 25.1055 16.7718 24.8984 16.413ZM0.898617 23.9581L0.100423 25.3406C-0.106684 25.6993 0.0162228 26.158 0.374942 26.3651C0.733662 26.5722 1.19235 26.4493 1.39946 26.0906L2.19765 24.7081C2.40476 24.3494 2.28186 23.8907 1.92314 23.6836C1.56442 23.4765 1.10572 23.5994 0.898617 23.9581ZM4.09139 18.4281L2.495 21.1931C2.2879 21.5518 2.4108 22.0105 2.76953 22.2176C3.12824 22.4247 3.58694 22.3018 3.79404 21.9431L5.39043 19.1781C5.59754 18.8193 5.47463 18.3606 5.11591 18.1535C4.75719 17.9464 4.2985 18.0693 4.09139 18.4281ZM6.48597 14.2805L5.68778 15.663C5.48067 16.0217 5.60358 16.4804 5.9623 16.6875C6.32102 16.8947 6.77971 16.7717 6.98682 16.413L7.78501 15.0305C7.99212 14.6718 7.86921 14.2131 7.51049 14.006C7.15177 13.7989 6.69308 13.9218 6.48597 14.2805Z" fill="#1BB169"/>
</svg>
