<svg width="32" height="32" viewBox="0 0 32 32" fill="none" xmlns="http://www.w3.org/2000/svg">
<g clip-path="url(#clip0_67_4902)">
<path d="M21 2H1V30H21V2Z" stroke="#7465EB" stroke-width="2" stroke-miterlimit="10" stroke-linecap="square"/>
<path d="M24.5001 14H31.5001C31.5916 14.0001 31.6814 13.9751 31.7597 13.9276C31.838 13.8802 31.9018 13.8122 31.9441 13.731C31.9864 13.6498 32.0056 13.5586 31.9996 13.4673C31.9936 13.3759 31.9626 13.288 31.9101 13.213L28.4101 8.213C28.3615 8.15067 28.2993 8.10024 28.2282 8.06556C28.1572 8.03087 28.0791 8.01285 28.0001 8.01285C27.921 8.01285 27.843 8.03087 27.772 8.06556C27.7009 8.10024 27.6387 8.15067 27.5901 8.213L24.0901 13.213C24.0375 13.288 24.0066 13.3759 24.0006 13.4673C23.9946 13.5586 24.0138 13.6498 24.0561 13.731C24.0984 13.8122 24.1621 13.8802 24.2404 13.9276C24.3187 13.9751 24.4085 14.0001 24.5001 14Z" fill="#7465EB"/>
<path d="M31.5001 18H24.5001C24.4085 17.9999 24.3187 18.0249 24.2404 18.0724C24.1621 18.1198 24.0984 18.1878 24.0561 18.269C24.0138 18.3502 23.9946 18.4414 24.0006 18.5328C24.0066 18.6241 24.0375 18.712 24.0901 18.787L27.5901 23.787C27.6362 23.853 27.6975 23.9069 27.7689 23.9442C27.8403 23.9814 27.9196 24.0008 28.0001 24.0008C28.0806 24.0008 28.1599 23.9814 28.2313 23.9442C28.3027 23.9069 28.364 23.853 28.4101 23.787L31.9101 18.787C31.9626 18.712 31.9936 18.6241 31.9996 18.5328C32.0056 18.4414 31.9864 18.3502 31.9441 18.269C31.9018 18.1878 31.838 18.1198 31.7597 18.0724C31.6814 18.0249 31.5916 17.9999 31.5001 18Z" fill="#7465EB"/>
<path d="M11 2V30" stroke="#7465EB" stroke-width="2" stroke-miterlimit="10"/>
</g>
<defs>
<clipPath id="clip0_67_4902">
<rect width="32" height="32" fill="white"/>
</clipPath>
</defs>
</svg>
